<svg width="76" height="76" viewBox="0 0 76 76" fill="none" xmlns="http://www.w3.org/2000/svg">
<path d="M53.5417 0.5H22.4583L0.5 22.4583V53.5417L22.4583 75.5H53.5417L75.5 53.5417V22.4583L53.5417 0.5ZM58.8333 53.5833L53.5833 58.8333L38 43.25L22.4167 58.8333L17.1667 53.5833L32.75 38L17.1667 22.4167L22.4167 17.1667L38 32.75L53.5833 17.1667L58.8333 22.4167L43.25 38L58.8333 53.5833Z" fill="#E11B22"/>
</svg>
